<?xml version="1.0" encoding="UTF-8" standalone="no"?>
<!-- Created with Inkscape (http://www.inkscape.org/) -->

<svg
   width="76.587189mm"
   height="33.607918mm"
   viewBox="0 0 76.587189 33.607918"
   version="1.1"
   id="svg5469"
   inkscape:version="1.2.2 (b0a8486541, 2022-12-01)"
   sodipodi:docname="ansol2.svg"
   xmlns:inkscape="http://www.inkscape.org/namespaces/inkscape"
   xmlns:sodipodi="http://sodipodi.sourceforge.net/DTD/sodipodi-0.dtd"
   xmlns="http://www.w3.org/2000/svg"
   xmlns:svg="http://www.w3.org/2000/svg">
  <sodipodi:namedview
     id="namedview5471"
     pagecolor="#ffffff"
     bordercolor="#666666"
     borderopacity="1.0"
     inkscape:showpageshadow="2"
     inkscape:pageopacity="0.0"
     inkscape:pagecheckerboard="0"
     inkscape:deskcolor="#d1d1d1"
     inkscape:document-units="mm"
     showgrid="false"
     inkscape:zoom="2.4970353"
     inkscape:cx="70.483585"
     inkscape:cy="104.12348"
     inkscape:window-width="1920"
     inkscape:window-height="1055"
     inkscape:window-x="0"
     inkscape:window-y="0"
     inkscape:window-maximized="1"
     inkscape:current-layer="layer1" />
  <defs
     id="defs5466">
    <rect
       x="315.61664"
       y="504.45312"
       width="362.61575"
       height="127.12197"
       id="rect3066-3-36-95-3-9-36" />
  </defs>
  <g
     inkscape:label="Layer 1"
     inkscape:groupmode="layer"
     id="layer1"
     transform="translate(-56.410735,-65.020331)">
    <g
       id="g12-3-0-6-8-7-6-5"
       transform="matrix(0.03506765,0,0,-0.03506765,56.410744,76.241979)"
       inkscape:export-filename="/home/hugopeixoto/work/ansol/site-rewrite/logo-square.png"
       inkscape:export-xdpi="222.6759"
       inkscape:export-ydpi="222.6759"
       style="fill:#000000;fill-opacity:1;stroke:none;stroke-opacity:1">
      <path
         inkscape:connector-curvature="0"
         d="m 0,0 v 200 c 0,66.273 53.7266,120 120,120 h 148.79675 c 66.273,0 120,-53.727 120,-120 V 0 h -80 V 120 H 80 V 0 Z m 80,200 v 0 c 0,22.09 17.9102,40 40,40 h 148.79675 c 22.09,0 40,-17.91 40,-40 z M 468.79675,0 v 200 c 0,66.273 53.727,120 120,120 h 148.79676 c 66.273,0 120,-53.727 120,-120 V 0 h -80 v 200 c 0,22.09 -17.91,40 -40,40 H 588.79675 c -22.09,0 -40,-17.91 -40,-40 V 0 Z m 488.79676,0 h 268.79679 c 55.23,0 100,44.7734 100,100 0,55.227 -44.77,100 -100,100 h -188.7968 c -11.04,0 -20,8.957 -20,20 0,11.043 8.96,20 20,20 h 268.7968 v 80 h -268.7968 c -55.22999,0 -99.99999,-44.773 -99.99999,-100 0,-55.227 44.77,-100 99.99999,-100 h 188.7968 c 11.04,0 20,-8.957 20,-20 0,-11.043 -8.96,-20 -20,-20 H 957.59351 Z m 448.79679,120 v 80 c 0,66.273 53.73,120 120,120 h 148.7968 c 66.27,0 120,-53.727 120,-120 v -80 c 0,-66.2734 -53.73,-120 -120,-120 h -148.7968 c -66.27,0 -120,53.7266 -120,120 z m 80,0 v 80 c 0,22.09 17.91,40 40,40 h 148.7968 c 22.09,0 40,-17.91 40,-40 v -80 c 0,-22.0898 -17.91,-40 -40,-40 h -148.7968 c -22.09,0 -40,17.9102 -40,40 z M 1875.187,320 V 120 c 0,-66.2734 53.73,-120 120,-120 h 188.7968 V 80 H 1995.187 c -22.09,0 -40,17.9102 -40,40 v 200"
         style="fill:#000000;fill-opacity:1;fill-rule:evenodd;stroke:none;stroke-opacity:1"
         id="path14-6-3-2-7-53-0-3"
         sodipodi:nodetypes="csssscccccccssscccssssccsssscccssssssccssssssccsssssssssssssssssscssccssc" />
    </g>
    <g
       aria-label="Associação Nacional
para o Software Livre"
       transform="matrix(0.28376057,0,0,0.28376057,-33.274971,-64.762919)"
       id="text3064-4-9-17-5-6-5"
       style="font-size:40px;line-height:0.9;white-space:pre;shape-inside:url(#rect3066-3-36-95-3-9-36);display:inline">
      <path
         d="m 316.0612,533.84813 7.87759,-20.85414 h 1.67578 l 7.89192,20.85414 h -1.83333 l -2.14844,-5.84374 h -9.48176 l -2.14843,5.84374 z m 4.54036,-7.34765 h 8.36457 l -4.18229,-11.37238 z"
         style="font-weight:300;font-size:29.3333px;font-family:Roboto;-inkscape-font-specification:'Roboto, Light'"
         id="path649" />
      <path
         d="m 345.48044,529.89501 q 0,-0.95963 -0.78776,-1.83333 -0.77344,-0.88802 -3.36589,-1.43229 -2.59244,-0.54427 -3.99609,-1.48958 -1.40364,-0.94531 -1.40364,-2.86458 0,-1.73307 1.46094,-2.96484 1.47526,-1.24609 3.99609,-1.24609 2.6927,0 4.21093,1.3177 1.51823,1.31771 1.51823,3.30859 h -1.73308 q 0,-1.20312 -1.03124,-2.17708 -1.03125,-0.98828 -2.96484,-0.98828 -2.00521,0 -2.87891,0.85938 -0.87369,0.85937 -0.87369,1.83333 0,1.01692 0.74479,1.71874 0.75911,0.70183 3.35156,1.30339 2.60676,0.58724 3.92447,1.5039 1.54687,1.07422 1.54687,3.0651 0,1.91927 -1.56119,3.1224 -1.54688,1.20312 -4.15364,1.20312 -2.95052,0 -4.51172,-1.40364 -1.56119,-1.41797 -1.56119,-3.23698 h 1.70442 q 0.11458,1.83333 1.50391,2.50651 1.38932,0.67317 2.86458,0.67317 1.94791,0 2.96484,-0.84505 1.03125,-0.84505 1.03125,-1.93359 z"
         style="font-weight:300;font-size:29.3333px;font-family:Roboto;-inkscape-font-specification:'Roboto, Light'"
         id="path651" />
      <path
         d="m 360.34761,529.89501 q 0,-0.95963 -0.78776,-1.83333 -0.77344,-0.88802 -3.36588,-1.43229 -2.59245,-0.54427 -3.99609,-1.48958 -1.40365,-0.94531 -1.40365,-2.86458 0,-1.73307 1.46094,-2.96484 1.47526,-1.24609 3.99609,-1.24609 2.6927,0 4.21093,1.3177 1.51823,1.31771 1.51823,3.30859 h -1.73307 q 0,-1.20312 -1.03125,-2.17708 -1.03125,-0.98828 -2.96484,-0.98828 -2.00521,0 -2.87891,0.85938 -0.87369,0.85937 -0.87369,1.83333 0,1.01692 0.74479,1.71874 0.75911,0.70183 3.35156,1.30339 2.60677,0.58724 3.92447,1.5039 1.54688,1.07422 1.54688,3.0651 0,1.91927 -1.5612,3.1224 -1.54687,1.20312 -4.15364,1.20312 -2.95052,0 -4.51172,-1.40364 -1.56119,-1.41797 -1.56119,-3.23698 h 1.70442 q 0.11459,1.83333 1.50391,2.50651 1.38932,0.67317 2.86458,0.67317 1.94791,0 2.96484,-0.84505 1.03125,-0.84505 1.03125,-1.93359 z"
         style="font-weight:300;font-size:29.3333px;font-family:Roboto;-inkscape-font-specification:'Roboto, Light'"
         id="path653" />
      <path
         d="m 364.98823,525.87028 q 0,-3.38021 1.89062,-5.58593 1.89062,-2.22005 5.01301,-2.22005 3.13672,0 5.01302,2.17708 1.8763,2.16275 1.91927,5.48567 v 0.60156 q 0,3.39453 -1.89063,5.60025 -1.8763,2.20573 -5.01301,2.20573 -3.15104,0 -5.04166,-2.20573 -1.89062,-2.20572 -1.89062,-5.60025 z m 1.71874,0.45833 q 0,2.5638 1.33203,4.45442 1.34636,1.89062 3.88151,1.89062 2.50651,0 3.83854,-1.89062 1.34635,-1.89062 1.34635,-4.45442 v -0.45833 q 0,-2.50651 -1.34635,-4.42578 -1.34636,-1.91927 -3.86719,-1.91927 -2.5065,0 -3.85286,1.91927 -1.33203,1.91927 -1.33203,4.4401 z"
         style="font-weight:300;font-size:29.3333px;font-family:Roboto;-inkscape-font-specification:'Roboto, Light'"
         id="path655" />
      <path
         d="m 388.10539,532.67365 q 1.61849,0 2.89322,-0.91666 1.28907,-0.93099 1.41797,-2.70703 h 1.63281 q -0.11458,2.22005 -1.84765,3.65234 -1.73307,1.43229 -4.09635,1.43229 -3.23698,0 -4.91276,-2.1914 -1.67578,-2.20573 -1.70442,-5.44271 v -0.70182 q 0,-3.26562 1.67578,-5.49999 1.67578,-2.23437 4.91275,-2.23437 2.49219,0 4.16797,1.48958 1.6901,1.48958 1.80468,4.01041 h -1.63281 q -0.11458,-1.8763 -1.34635,-2.95052 -1.23177,-1.08854 -2.99349,-1.08854 -2.64973,0 -3.76692,1.90495 -1.11719,1.90494 -1.11719,4.36848 v 0.60156 q 0,2.47787 1.11719,4.38281 1.11719,1.89062 3.79557,1.89062 z"
         style="font-weight:300;font-size:29.3333px;font-family:Roboto;-inkscape-font-specification:'Roboto, Light'"
         id="path657" />
      <path
         d="m 397.38663,513.86769 q 0,-1.16016 1.17448,-1.16016 1.1888,0 1.1888,1.16016 0,1.13151 -1.1888,1.13151 -1.17448,0 -1.17448,-1.13151 z m 2.01953,4.48306 v 15.49738 h -1.70443 v -15.49738 z"
         style="font-weight:300;font-size:29.3333px;font-family:Roboto;-inkscape-font-specification:'Roboto, Light'"
         id="path659" />
      <path
         d="m 413.87229,533.84813 q -0.27214,-0.77343 -0.34375,-2.16276 -0.77344,0.98828 -2.09115,1.71875 -1.3177,0.73047 -3.15104,0.73047 -2.27734,0 -3.63801,-1.24609 -1.36068,-1.26042 -1.36068,-3.15104 0,-2.27734 1.89062,-3.59505 1.89063,-1.31771 5.17057,-1.31771 h 3.16536 v -1.74739 q 0,-1.66146 -1.03125,-2.62109 -1.03124,-0.95963 -2.96484,-0.95963 -1.80468,0 -2.97916,0.91666 -1.17448,0.91667 -1.17448,2.22005 l -1.71875,-0.0143 q 0,-1.7474 1.64714,-3.15104 1.64713,-1.40364 4.29687,-1.40364 2.47786,0 4.05338,1.26041 1.58984,1.26042 1.58984,3.78125 v 7.16145 q 0,2.30598 0.47266,3.39452 v 0.1862 z m -5.39974,-1.23177 q 1.86198,0 3.16536,-0.88802 1.31771,-0.88802 1.8763,-2.16276 v -3.42317 h -3.02213 q -2.59244,0.0143 -4.05338,0.93099 -1.44661,0.91667 -1.44661,2.52083 0,1.26042 0.93099,2.14844 0.93098,0.87369 2.54947,0.87369 z"
         style="font-weight:300;font-size:29.3333px;font-family:Roboto;-inkscape-font-specification:'Roboto, Light'"
         id="path661" />
      <path
         d="m 425.54544,532.67365 q 1.61849,0 2.89323,-0.91666 1.28906,-0.93099 1.41797,-2.70703 h 1.63281 q -0.11459,2.22005 -1.84766,3.65234 -1.73307,1.43229 -4.09635,1.43229 -3.23697,0 -4.91275,-2.1914 -1.67578,-2.20573 -1.70443,-5.44271 v -0.70182 q 0,-3.26562 1.67578,-5.49999 1.67578,-2.23437 4.91276,-2.23437 2.49218,0 4.16796,1.48958 1.6901,1.48958 1.80469,4.01041 h -1.63281 q -0.11459,-1.8763 -1.34636,-2.95052 -1.23176,-1.08854 -2.99348,-1.08854 -2.64974,0 -3.76692,1.90495 -1.11719,1.90494 -1.11719,4.36848 v 0.60156 q 0,2.47787 1.11719,4.38281 1.11718,1.89062 3.79556,1.89062 z m -0.85937,1.31771 h 1.33203 l -0.15755,0.93099 q 0.87369,0.11458 1.61849,0.64453 0.74479,0.52995 0.74479,1.80469 0,1.27473 -1.10287,2.06249 -1.10286,0.78776 -3.10807,0.78776 l -0.10026,-1.10286 q 1.0599,0 1.96224,-0.41536 0.91667,-0.40105 0.91667,-1.31771 0,-0.83073 -0.61589,-1.14583 -0.61588,-0.30078 -1.89062,-0.41537 z"
         style="font-weight:300;font-size:29.3333px;font-family:Roboto;-inkscape-font-specification:'Roboto, Light'"
         id="path663" />
      <path
         d="m 444.72381,533.84813 q -0.27214,-0.77343 -0.34375,-2.16276 -0.77344,0.98828 -2.09114,1.71875 -1.31771,0.73047 -3.15104,0.73047 -2.27734,0 -3.63802,-1.24609 -1.36067,-1.26042 -1.36067,-3.15104 0,-2.27734 1.89062,-3.59505 1.89062,-1.31771 5.17057,-1.31771 h 3.16536 v -1.74739 q 0,-1.66146 -1.03125,-2.62109 -1.03125,-0.95963 -2.96484,-0.95963 -1.80469,0 -2.97917,0.91666 -1.17447,0.91667 -1.17447,2.22005 l -1.71875,-0.0143 q 0,-1.7474 1.64713,-3.15104 1.64714,-1.40364 4.29687,-1.40364 2.47786,0 4.05338,1.26041 1.58985,1.26042 1.58985,3.78125 v 7.16145 q 0,2.30598 0.47265,3.39452 v 0.1862 z m -5.39973,-1.23177 q 1.86197,0 3.16536,-0.88802 1.3177,-0.88802 1.8763,-2.16276 v -3.42317 h -3.02213 q -2.59245,0.0143 -4.05339,0.93099 -1.44661,0.91667 -1.44661,2.52083 0,1.26042 0.93099,2.14844 0.93099,0.87369 2.54948,0.87369 z m 5.27082,-20.2669 1.28906,0.0859 q 0,1.38932 -0.8164,2.22005 -0.81641,0.83072 -1.99088,0.83072 -1.00261,0 -1.57552,-0.38671 -0.5586,-0.40105 -1.0599,-0.78776 -0.51562,-0.40105 -1.33203,-0.40105 -0.67317,0 -1.13151,0.45834 -0.45833,0.44401 -0.45833,1.24609 l -1.27474,-0.0573 q 0,-1.36068 0.80209,-2.19141 0.8164,-0.84505 1.99088,-0.84505 0.90234,0 1.48958,0.38672 l 1.17448,0.80208 q 0.55859,0.38672 1.3177,0.38672 0.65886,0 1.11719,-0.47265 0.45833,-0.47266 0.45833,-1.27474 z"
         style="font-weight:300;font-size:29.3333px;font-family:Roboto;-inkscape-font-specification:'Roboto, Light'"
         id="path665" />
      <path
         d="m 449.7225,525.87028 q 0,-3.38021 1.89062,-5.58593 1.89062,-2.22005 5.01301,-2.22005 3.13672,0 5.01302,2.17708 1.8763,2.16275 1.91927,5.48567 v 0.60156 q 0,3.39453 -1.89062,5.60025 -1.8763,2.20573 -5.01302,2.20573 -3.15104,0 -5.04166,-2.20573 -1.89062,-2.20572 -1.89062,-5.60025 z m 1.71875,0.45833 q 0,2.5638 1.33202,4.45442 1.34636,1.89062 3.88151,1.89062 2.50651,0 3.83854,-1.89062 1.34635,-1.89062 1.34635,-4.45442 v -0.45833 q 0,-2.50651 -1.34635,-4.42578 -1.34635,-1.91927 -3.86719,-1.91927 -2.5065,0 -3.85286,1.91927 -1.33202,1.91927 -1.33202,4.4401 z"
         style="font-weight:300;font-size:29.3333px;font-family:Roboto;-inkscape-font-specification:'Roboto, Light'"
         id="path667" />
      <path
         d="m 490.1847,512.99399 v 20.85414 h -1.77604 L 476.43472,516.0018 v 17.84633 h -1.77604 v -20.85414 h 1.77604 l 11.98827,17.84633 v -17.84633 z"
         style="font-weight:300;font-size:29.3333px;font-family:Roboto;-inkscape-font-specification:'Roboto, Light'"
         id="path669" />
      <path
         d="m 504.87999,533.84813 q -0.27213,-0.77343 -0.34375,-2.16276 -0.77344,0.98828 -2.09114,1.71875 -1.31771,0.73047 -3.15104,0.73047 -2.27734,0 -3.63802,-1.24609 -1.36067,-1.26042 -1.36067,-3.15104 0,-2.27734 1.89062,-3.59505 1.89062,-1.31771 5.17057,-1.31771 h 3.16536 v -1.74739 q 0,-1.66146 -1.03125,-2.62109 -1.03125,-0.95963 -2.96484,-0.95963 -1.80469,0 -2.97916,0.91666 -1.17448,0.91667 -1.17448,2.22005 l -1.71875,-0.0143 q 0,-1.7474 1.64713,-3.15104 1.64714,-1.40364 4.29687,-1.40364 2.47787,0 4.05338,1.26041 1.58985,1.26042 1.58985,3.78125 v 7.16145 q 0,2.30598 0.47265,3.39452 v 0.1862 z m -5.39973,-1.23177 q 1.86197,0 3.16536,-0.88802 1.31771,-0.88802 1.8763,-2.16276 v -3.42317 h -3.02213 q -2.59245,0.0143 -4.05338,0.93099 -1.44662,0.91667 -1.44662,2.52083 0,1.26042 0.93099,2.14844 0.93099,0.87369 2.54948,0.87369 z"
         style="font-weight:300;font-size:29.3333px;font-family:Roboto;-inkscape-font-specification:'Roboto, Light'"
         id="path671" />
      <path
         d="m 516.55316,532.67365 q 1.61849,0 2.89322,-0.91666 1.28906,-0.93099 1.41797,-2.70703 h 1.63281 q -0.11458,2.22005 -1.84765,3.65234 -1.73307,1.43229 -4.09635,1.43229 -3.23698,0 -4.91276,-2.1914 -1.67578,-2.20573 -1.70442,-5.44271 v -0.70182 q 0,-3.26562 1.67578,-5.49999 1.67578,-2.23437 4.91275,-2.23437 2.49219,0 4.16797,1.48958 1.6901,1.48958 1.80468,4.01041 h -1.63281 q -0.11458,-1.8763 -1.34635,-2.95052 -1.23177,-1.08854 -2.99349,-1.08854 -2.64973,0 -3.76692,1.90495 -1.11719,1.90494 -1.11719,4.36848 v 0.60156 q 0,2.47787 1.11719,4.38281 1.11719,1.89062 3.79557,1.89062 z"
         style="font-weight:300;font-size:29.3333px;font-family:Roboto;-inkscape-font-specification:'Roboto, Light'"
         id="path673" />
      <path
         d="m 525.8344,513.86769 q 0,-1.16016 1.17448,-1.16016 1.1888,0 1.1888,1.16016 0,1.13151 -1.1888,1.13151 -1.17448,0 -1.17448,-1.13151 z m 2.01953,4.48306 v 15.49738 h -1.70443 v -15.49738 z"
         style="font-weight:300;font-size:29.3333px;font-family:Roboto;-inkscape-font-specification:'Roboto, Light'"
         id="path675" />
      <path
         d="m 531.5922,525.87028 q 0,-3.38021 1.89063,-5.58593 1.89062,-2.22005 5.01301,-2.22005 3.13672,0 5.01302,2.17708 1.8763,2.16275 1.91926,5.48567 v 0.60156 q 0,3.39453 -1.89062,5.60025 -1.8763,2.20573 -5.01301,2.20573 -3.15104,0 -5.04166,-2.20573 -1.89063,-2.20572 -1.89063,-5.60025 z m 1.71875,0.45833 q 0,2.5638 1.33203,4.45442 1.34635,1.89062 3.88151,1.89062 2.5065,0 3.83853,-1.89062 1.34636,-1.89062 1.34636,-4.45442 v -0.45833 q 0,-2.50651 -1.34636,-4.42578 -1.34635,-1.91927 -3.86718,-1.91927 -2.50651,0 -3.85286,1.91927 -1.33203,1.91927 -1.33203,4.4401 z"
         style="font-weight:300;font-size:29.3333px;font-family:Roboto;-inkscape-font-specification:'Roboto, Light'"
         id="path677" />
      <path
         d="m 555.2966,519.53955 q -1.80468,0 -2.96484,1.13151 -1.14583,1.11719 -1.64713,2.52083 v 10.65624 h -1.71875 v -15.49738 h 1.64713 l 0.0573,2.62109 q 0.80209,-1.3177 2.09115,-2.10546 1.30338,-0.80208 2.96484,-0.80208 2.29166,0 3.60937,1.30338 1.31771,1.28906 1.33203,4.31119 v 10.16926 h -1.71875 v -10.16926 q -0.0143,-2.36328 -1.0026,-3.2513 -0.97396,-0.88802 -2.64974,-0.88802 z"
         style="font-weight:300;font-size:29.3333px;font-family:Roboto;-inkscape-font-specification:'Roboto, Light'"
         id="path679" />
      <path
         d="m 574.89034,533.84813 q -0.27214,-0.77343 -0.34375,-2.16276 -0.77344,0.98828 -2.09115,1.71875 -1.3177,0.73047 -3.15103,0.73047 -2.27735,0 -3.63802,-1.24609 -1.36068,-1.26042 -1.36068,-3.15104 0,-2.27734 1.89063,-3.59505 1.89062,-1.31771 5.17056,-1.31771 h 3.16536 v -1.74739 q 0,-1.66146 -1.03124,-2.62109 -1.03125,-0.95963 -2.96485,-0.95963 -1.80468,0 -2.97916,0.91666 -1.17448,0.91667 -1.17448,2.22005 l -1.71874,-0.0143 q 0,-1.7474 1.64713,-3.15104 1.64713,-1.40364 4.29687,-1.40364 2.47786,0 4.05338,1.26041 1.58984,1.26042 1.58984,3.78125 v 7.16145 q 0,2.30598 0.47266,3.39452 v 0.1862 z m -5.39974,-1.23177 q 1.86198,0 3.16536,-0.88802 1.31771,-0.88802 1.8763,-2.16276 v -3.42317 h -3.02213 q -2.59244,0.0143 -4.05338,0.93099 -1.44661,0.91667 -1.44661,2.52083 0,1.26042 0.93099,2.14844 0.93099,0.87369 2.54947,0.87369 z"
         style="font-weight:300;font-size:29.3333px;font-family:Roboto;-inkscape-font-specification:'Roboto, Light'"
         id="path681" />
      <path
         d="m 582.73927,511.84816 v 21.99997 h -1.70442 v -21.99997 z"
         style="font-weight:300;font-size:29.3333px;font-family:Roboto;-inkscape-font-specification:'Roboto, Light'"
         id="path683" />
      <path
         d="m 324.41145,570.13459 q -3.16536,0 -4.85546,-2.2487 v 7.92057 h -1.71875 v -21.45571 h 1.60416 l 0.0859,2.19141 q 1.66146,-2.47786 4.85546,-2.47786 2.83594,0 4.38281,2.14843 1.5612,2.13411 1.5612,5.74348 v 0.30078 q 0,3.46615 -1.5612,5.67187 -1.54687,2.20573 -4.35416,2.20573 z m -0.41537,-14.58071 q -1.84765,0 -2.89322,0.90234 -1.04557,0.88802 -1.54687,2.04817 v 7.47656 q 0.55859,1.16015 1.64713,1.93359 1.08854,0.75911 2.82161,0.75911 2.33463,0 3.45182,-1.84765 1.13151,-1.86198 1.13151,-4.56901 v -0.30078 q 0,-2.70702 -1.13151,-4.55468 -1.11719,-1.84765 -3.48047,-1.84765 z"
         style="font-weight:300;font-size:29.3333px;font-family:Roboto;-inkscape-font-specification:'Roboto, Light'"
         id="path685" />
      <path
         d="m 343.90492,569.84813 q -0.27214,-0.77343 -0.34375,-2.16276 -0.77344,0.98828 -2.09115,1.71875 -1.3177,0.73047 -3.15103,0.73047 -2.27735,0 -3.63802,-1.24609 -1.36068,-1.26042 -1.36068,-3.15104 0,-2.27734 1.89063,-3.59505 1.89062,-1.31771 5.17056,-1.31771 h 3.16536 v -1.74739 q 0,-1.66146 -1.03125,-2.62109 -1.03124,-0.95963 -2.96484,-0.95963 -1.80468,0 -2.97916,0.91666 -1.17448,0.91667 -1.17448,2.22005 l -1.71874,-0.0143 q 0,-1.7474 1.64713,-3.15104 1.64713,-1.40364 4.29687,-1.40364 2.47786,0 4.05338,1.26041 1.58984,1.26042 1.58984,3.78125 v 7.16145 q 0,2.30598 0.47266,3.39452 v 0.1862 z m -5.39974,-1.23177 q 1.86198,0 3.16536,-0.88802 1.31771,-0.88802 1.8763,-2.16276 v -3.42317 h -3.02213 q -2.59244,0.0143 -4.05338,0.93099 -1.44661,0.91667 -1.44661,2.52083 0,1.26042 0.93099,2.14844 0.93099,0.87369 2.54947,0.87369 z"
         style="font-weight:300;font-size:29.3333px;font-family:Roboto;-inkscape-font-specification:'Roboto, Light'"
         id="path687" />
      <path
         d="m 355.85021,555.69711 q -1.73307,0 -2.80728,0.97395 -1.0599,0.95964 -1.48959,2.49219 v 10.68488 h -1.71874 v -15.49738 h 1.67578 l 0.043,2.42057 q 1.375,-2.70702 4.35417,-2.70702 0.68749,0 1.14583,0.17187 l -0.0573,1.5612 q -0.67318,-0.10026 -1.14584,-0.10026 z"
         style="font-weight:300;font-size:29.3333px;font-family:Roboto;-inkscape-font-specification:'Roboto, Light'"
         id="path689" />
      <path
         d="m 368.94135,569.84813 q -0.27214,-0.77343 -0.34375,-2.16276 -0.77344,0.98828 -2.09115,1.71875 -1.3177,0.73047 -3.15103,0.73047 -2.27735,0 -3.63802,-1.24609 -1.36068,-1.26042 -1.36068,-3.15104 0,-2.27734 1.89063,-3.59505 1.89062,-1.31771 5.17056,-1.31771 h 3.16536 v -1.74739 q 0,-1.66146 -1.03124,-2.62109 -1.03125,-0.95963 -2.96485,-0.95963 -1.80468,0 -2.97916,0.91666 -1.17448,0.91667 -1.17448,2.22005 l -1.71874,-0.0143 q 0,-1.7474 1.64713,-3.15104 1.64713,-1.40364 4.29687,-1.40364 2.47786,0 4.05338,1.26041 1.58984,1.26042 1.58984,3.78125 v 7.16145 q 0,2.30598 0.47266,3.39452 v 0.1862 z m -5.39974,-1.23177 q 1.86198,0 3.16536,-0.88802 1.31771,-0.88802 1.8763,-2.16276 v -3.42317 h -3.02213 q -2.59244,0.0143 -4.05338,0.93099 -1.44661,0.91667 -1.44661,2.52083 0,1.26042 0.93099,2.14844 0.93099,0.87369 2.54947,0.87369 z"
         style="font-weight:300;font-size:29.3333px;font-family:Roboto;-inkscape-font-specification:'Roboto, Light'"
         id="path691" />
      <path
         d="m 381.08717,561.87028 q 0,-3.38021 1.89062,-5.58593 1.89062,-2.22005 5.01301,-2.22005 3.13672,0 5.01302,2.17708 1.8763,2.16275 1.91927,5.48567 v 0.60156 q 0,3.39453 -1.89062,5.60025 -1.8763,2.20573 -5.01302,2.20573 -3.15104,0 -5.04166,-2.20573 -1.89062,-2.20572 -1.89062,-5.60025 z m 1.71874,0.45833 q 0,2.5638 1.33203,4.45442 1.34636,1.89062 3.88151,1.89062 2.50651,0 3.83854,-1.89062 1.34635,-1.89062 1.34635,-4.45442 v -0.45833 q 0,-2.50651 -1.34635,-4.42578 -1.34635,-1.91927 -3.86719,-1.91927 -2.5065,0 -3.85286,1.91927 -1.33203,1.91927 -1.33203,4.4401 z"
         style="font-weight:300;font-size:29.3333px;font-family:Roboto;-inkscape-font-specification:'Roboto, Light'"
         id="path693" />
      <path
         d="m 417.8254,564.72053 q 0,-1.76171 -1.26041,-2.77864 -1.26042,-1.01692 -4.4401,-1.90494 -3.17969,-0.88802 -4.99869,-2.17709 -1.81901,-1.30338 -1.81901,-3.76692 0,-2.40625 1.96224,-3.89583 1.96223,-1.48958 5.04166,-1.48958 3.29426,0 5.21353,1.81901 1.93359,1.80468 1.93359,4.41145 h -1.76171 q 0,-2.04817 -1.41797,-3.3802 -1.41797,-1.34635 -3.96744,-1.34635 -2.59245,0 -3.91016,1.14583 -1.3177,1.13151 -1.3177,2.6927 0,1.47526 1.16015,2.52083 1.17448,1.03125 4.46875,1.93359 3.30859,0.90235 5.09895,2.29167 1.79036,1.375 1.79036,3.89583 0,2.54947 -2.03385,3.99609 -2.01953,1.44661 -5.14192,1.44661 -1.86198,0 -3.65234,-0.64453 -1.79036,-0.64453 -2.96484,-2.01953 -1.17448,-1.375 -1.17448,-3.58072 h 1.77604 q 0,1.76171 0.90234,2.80728 0.91667,1.03125 2.29167,1.48959 1.38932,0.45833 2.82161,0.45833 2.46354,0 3.92447,-1.07422 1.47526,-1.08854 1.47526,-2.85026 z"
         style="font-weight:300;font-size:29.3333px;font-family:Roboto;-inkscape-font-specification:'Roboto, Light'"
         id="path695" />
      <path
         d="m 422.05066,561.87028 q 0,-3.38021 1.89062,-5.58593 1.89063,-2.22005 5.01302,-2.22005 3.13671,0 5.01301,2.17708 1.8763,2.16275 1.91927,5.48567 v 0.60156 q 0,3.39453 -1.89062,5.60025 -1.8763,2.20573 -5.01302,2.20573 -3.15103,0 -5.04166,-2.20573 -1.89062,-2.20572 -1.89062,-5.60025 z m 1.71875,0.45833 q 0,2.5638 1.33203,4.45442 1.34635,1.89062 3.8815,1.89062 2.50651,0 3.83854,-1.89062 1.34635,-1.89062 1.34635,-4.45442 v -0.45833 q 0,-2.50651 -1.34635,-4.42578 -1.34635,-1.91927 -3.86718,-1.91927 -2.50651,0 -3.85286,1.91927 -1.33203,1.91927 -1.33203,4.4401 z"
         style="font-weight:300;font-size:29.3333px;font-family:Roboto;-inkscape-font-specification:'Roboto, Light'"
         id="path697" />
      <path
         d="m 446.08449,555.7544 h -3.70964 v 14.09373 h -1.70442 V 555.7544 h -2.57812 v -1.40365 h 2.57812 v -1.99088 q 0.0143,-2.32031 1.23177,-3.5664 1.23177,-1.24609 3.33723,-1.24609 0.97396,0 1.83334,0.24349 l -0.12891,1.43229 q -0.70182,-0.17188 -1.57552,-0.17188 -1.38932,0 -2.1914,0.8737 -0.80209,0.87369 -0.80209,2.49218 v 1.93359 h 3.70964 z"
         style="font-weight:300;font-size:29.3333px;font-family:Roboto;-inkscape-font-specification:'Roboto, Light'"
         id="path699" />
      <path
         d="m 455.29411,569.90542 q -0.65885,0.22917 -1.83333,0.22917 -1.48958,0 -2.43489,-0.85937 -0.94531,-0.8737 -0.94531,-3.20833 V 555.7544 h -2.83594 v -1.40365 h 2.83594 v -3.98176 h 1.73307 v 3.98176 h 3.19401 v 1.40365 h -3.19401 v 10.31249 q 0,1.63281 0.60156,2.10546 0.61589,0.45834 1.40364,0.45834 0.57292,0 1.40365,-0.15756 z"
         style="font-weight:300;font-size:29.3333px;font-family:Roboto;-inkscape-font-specification:'Roboto, Light'"
         id="path701" />
      <path
         d="m 477.45165,554.35075 -4.51172,15.49738 H 471.479 l -3.99609,-12.30337 -0.17188,-0.84505 -0.20052,0.85937 -3.91015,12.28905 h -1.46094 l -4.49739,-15.49738 h 1.76172 l 3.29427,11.93098 0.25781,1.30338 0.32943,-1.37499 3.72395,-11.85937 h 1.47526 l 3.66666,11.7591 0.41537,1.61849 0.3151,-1.48958 3.19401,-11.88801 z"
         style="font-weight:300;font-size:29.3333px;font-family:Roboto;-inkscape-font-specification:'Roboto, Light'"
         id="path703" />
      <path
         d="m 490.4998,569.84813 q -0.27213,-0.77343 -0.34375,-2.16276 -0.77343,0.98828 -2.09114,1.71875 -1.31771,0.73047 -3.15104,0.73047 -2.27734,0 -3.63801,-1.24609 -1.36068,-1.26042 -1.36068,-3.15104 0,-2.27734 1.89062,-3.59505 1.89063,-1.31771 5.17057,-1.31771 h 3.16536 v -1.74739 q 0,-1.66146 -1.03125,-2.62109 -1.03125,-0.95963 -2.96484,-0.95963 -1.80468,0 -2.97916,0.91666 -1.17448,0.91667 -1.17448,2.22005 l -1.71875,-0.0143 q 0,-1.7474 1.64714,-3.15104 1.64713,-1.40364 4.29687,-1.40364 2.47786,0 4.05338,1.26041 1.58984,1.26042 1.58984,3.78125 v 7.16145 q 0,2.30598 0.47265,3.39452 v 0.1862 z m -5.39973,-1.23177 q 1.86198,0 3.16536,-0.88802 1.31771,-0.88802 1.8763,-2.16276 v -3.42317 h -3.02213 q -2.59245,0.0143 -4.05338,0.93099 -1.44662,0.91667 -1.44662,2.52083 0,1.26042 0.93099,2.14844 0.93099,0.87369 2.54948,0.87369 z"
         style="font-weight:300;font-size:29.3333px;font-family:Roboto;-inkscape-font-specification:'Roboto, Light'"
         id="path705" />
      <path
         d="m 502.4451,555.69711 q -1.73307,0 -2.80728,0.97395 -1.0599,0.95964 -1.48959,2.49219 v 10.68488 h -1.71874 v -15.49738 h 1.67578 l 0.043,2.42057 q 1.375,-2.70702 4.35417,-2.70702 0.6875,0 1.14583,0.17187 l -0.0573,1.5612 q -0.67318,-0.10026 -1.14584,-0.10026 z"
         style="font-weight:300;font-size:29.3333px;font-family:Roboto;-inkscape-font-specification:'Roboto, Light'"
         id="path707" />
      <path
         d="m 517.54143,567.38459 q -0.75911,1.13151 -2.09114,1.94792 -1.33203,0.80208 -3.40885,0.80208 -3.02213,0 -4.98437,-2.13411 -1.96224,-2.13411 -1.96224,-5.47135 v -0.61588 q 0,-3.58073 1.99089,-5.71484 2.0052,-2.13411 4.65494,-2.13411 2.95052,0 4.54036,2.0052 1.58984,1.99088 1.58984,5.08463 v 1.04557 h -11.05728 v 0.32943 q 0,2.5638 1.46094,4.36848 1.47525,1.79037 3.83853,1.79037 2.73568,0 4.33984,-2.11979 z m -5.80077,-11.85936 q -1.96224,0 -3.27995,1.43229 -1.30338,1.43229 -1.57552,3.78125 h 9.26692 v -0.1862 q -0.043,-1.94791 -1.14583,-3.48047 -1.08854,-1.54687 -3.26562,-1.54687 z"
         style="font-weight:300;font-size:29.3333px;font-family:Roboto;-inkscape-font-specification:'Roboto, Light'"
         id="path709" />
      <path
         d="m 540.83047,568.35855 v 1.48958 h -12.05988 v -20.85414 h 1.77604 v 19.36456 z"
         style="font-weight:300;font-size:29.3333px;font-family:Roboto;-inkscape-font-specification:'Roboto, Light'"
         id="path711" />
      <path
         d="m 543.7237,549.86769 q 0,-1.16016 1.17447,-1.16016 1.18881,0 1.18881,1.16016 0,1.13151 -1.18881,1.13151 -1.17447,0 -1.17447,-1.13151 z m 2.01953,4.48306 v 15.49738 h -1.70443 v -15.49738 z"
         style="font-weight:300;font-size:29.3333px;font-family:Roboto;-inkscape-font-specification:'Roboto, Light'"
         id="path713" />
      <path
         d="m 561.72758,554.35075 -5.80078,15.49738 h -1.38932 l -5.81509,-15.49738 h 1.77604 l 4.7552,13.14843 4.69791,-13.14843 z"
         style="font-weight:300;font-size:29.3333px;font-family:Roboto;-inkscape-font-specification:'Roboto, Light'"
         id="path715" />
      <path
         d="m 570.53617,555.69711 q -1.73307,0 -2.80729,0.97395 -1.05989,0.95964 -1.48958,2.49219 v 10.68488 h -1.71875 v -15.49738 h 1.67578 l 0.043,2.42057 q 1.375,-2.70702 4.35416,-2.70702 0.6875,0 1.14583,0.17187 l -0.0573,1.5612 q -0.67318,-0.10026 -1.14583,-0.10026 z"
         style="font-weight:300;font-size:29.3333px;font-family:Roboto;-inkscape-font-specification:'Roboto, Light'"
         id="path717" />
      <path
         d="m 585.63251,567.38459 q -0.75911,1.13151 -2.09114,1.94792 -1.33203,0.80208 -3.40885,0.80208 -3.02213,0 -4.98437,-2.13411 -1.96224,-2.13411 -1.96224,-5.47135 v -0.61588 q 0,-3.58073 1.99088,-5.71484 2.00521,-2.13411 4.65495,-2.13411 2.95051,0 4.54036,2.0052 1.58984,1.99088 1.58984,5.08463 v 1.04557 h -11.05728 v 0.32943 q 0,2.5638 1.46094,4.36848 1.47525,1.79037 3.83853,1.79037 2.73568,0 4.33984,-2.11979 z m -5.80077,-11.85936 q -1.96224,0 -3.27995,1.43229 -1.30338,1.43229 -1.57552,3.78125 h 9.26692 v -0.1862 q -0.043,-1.94791 -1.14583,-3.48047 -1.08854,-1.54687 -3.26562,-1.54687 z"
         style="font-weight:300;font-size:29.3333px;font-family:Roboto;-inkscape-font-specification:'Roboto, Light'"
         id="path719" />
    </g>
  </g>
</svg>
