<?xml version="1.0" encoding="UTF-8" standalone="no"?>
<svg
   version="1.0"
   width="141.56148mm"
   height="26.336878mm"
   viewBox="0 0 401.27663 74.655717"
   preserveAspectRatio="xMidYMid"
   id="svg1415"
   sodipodi:docname="humaneasylogo.svg"
   inkscape:version="1.2.2 (732a01da63, 2022-12-09, custom)"
   xmlns:inkscape="http://www.inkscape.org/namespaces/inkscape"
   xmlns:sodipodi="http://sodipodi.sourceforge.net/DTD/sodipodi-0.dtd"
   xmlns="http://www.w3.org/2000/svg"
   xmlns:svg="http://www.w3.org/2000/svg">
  <defs
     id="defs1419" />
  <sodipodi:namedview
     id="namedview1417"
     pagecolor="#ffffff"
     bordercolor="#666666"
     borderopacity="1.0"
     inkscape:showpageshadow="2"
     inkscape:pageopacity="0.0"
     inkscape:pagecheckerboard="0"
     inkscape:deskcolor="#d1d1d1"
     inkscape:document-units="pt"
     showgrid="false"
     inkscape:zoom="0.75814467"
     inkscape:cx="472.20539"
     inkscape:cy="149.70757"
     inkscape:window-width="1920"
     inkscape:window-height="1016"
     inkscape:window-x="0"
     inkscape:window-y="27"
     inkscape:window-maximized="1"
     inkscape:current-layer="svg1415" />
  <g
     id="g5088"
     transform="translate(-107.6242,-135.22683)">
    <path
       d="m 139.12477,135.52541 c -4.19559,1.33977 -6.59307,6.45204 -6.59307,13.99705 0,4.79496 1.58656,10.01301 3.66673,11.95215 l 0.84617,0.77565 0.52886,-2.39748 c 1.12822,-5.0065 1.83336,-6.2405 5.71164,-10.33032 4.05456,-4.2661 4.97125,-5.95844 4.65393,-8.67323 -0.42308,-3.80777 -4.97124,-6.55782 -8.81426,-5.32382 z"
       id="path1371"
       style="fill:#e0130e;fill-opacity:1;stroke:none;stroke-width:0.0352571" />
    <path
       d="m 181.53901,161.86244 v 20.80166 h 2.64428 2.64428 v -9.37838 c 0,-5.92318 0.14103,-9.94249 0.42309,-10.96494 0.59937,-2.43274 3.06736,-4.83022 5.5001,-5.39433 4.19559,-0.9872 7.33347,0.74039 8.14438,4.5129 0.2468,1.12823 0.38783,5.67639 0.38783,11.52906 v 9.69569 h 2.64428 2.64428 v -10.22455 c 0,-6.20524 -0.14103,-10.92969 -0.38783,-12.05791 -1.234,-5.78216 -5.07702,-8.7085 -10.85918,-8.32067 -2.7853,0.21154 -5.07701,1.16348 -7.05141,2.92634 l -1.44554,1.30451 -0.0705,-7.54501 -0.10577,-7.50976 -2.53851,-0.10577 -2.57377,-0.10577 z"
       id="path1373"
       style="fill:#e0130e;fill-opacity:1;stroke:none;stroke-width:0.0352571" />
    <path
       d="m 458.83581,149.24041 c -2.25646,1.51605 -3.66674,3.7725 -4.05457,6.55781 -0.17628,1.19874 -0.74039,2.96159 -1.26925,3.91353 -2.96159,5.46485 -12.58677,14.80797 -16.42979,15.97145 -1.65708,0.4936 -2.7148,0.0705 -3.94879,-1.58656 -0.66989,-0.91669 -0.7404,-1.44554 -0.70514,-6.34628 0.0353,-6.66358 1.09297,-12.05791 3.5257,-18.01635 0.2468,-0.63463 0.10577,-0.63463 -1.83336,-0.38783 -2.32697,0.28205 -3.10263,0.59937 -4.40714,1.83337 -0.81091,0.74039 -1.05771,0.81091 -1.72759,0.45834 -1.51606,-0.81092 -5.60588,-2.04491 -7.50976,-2.29171 -2.32696,-0.28206 -5.39433,0.28205 -7.86232,1.48079 -3.91354,1.90389 -7.05142,5.25331 -10.01301,10.75341 -3.10262,5.7469 -12.16368,13.715 -18.50996,16.28876 -3.41993,1.41028 -7.58026,1.65708 -9.7662,0.59937 -0.84617,-0.38783 -1.86863,-1.26925 -2.32697,-1.93914 -0.95194,-1.37502 -1.83337,-4.08982 -1.83337,-5.57061 0,-0.91669 0.0705,-0.9872 1.51606,-0.9872 3.94879,0 10.11878,-1.69234 13.15088,-3.56096 4.26611,-2.67954 6.59307,-6.06422 6.62833,-9.66044 0.0353,-5.32382 -4.19559,-8.21489 -10.61238,-7.33347 -5.9937,0.84617 -11.59957,5.11228 -14.52591,11.03546 -3.73724,7.58027 -3.0321,16.32402 1.62183,20.4491 2.00965,1.76285 4.30136,2.46799 8.03861,2.46799 6.41679,0 10.64763,-1.97439 19.74395,-9.34312 l 4.23085,-3.38468 0.2468,3.10263 c 0.28206,3.59622 0.66989,5.04175 1.7276,6.62832 2.18594,3.17314 5.78216,3.73725 9.83672,1.58657 4.40713,-2.36222 11.4938,-10.5066 13.64448,-15.72465 0.35257,-0.84617 0.7404,-1.55131 0.88143,-1.55131 0.17628,0 0.2468,2.25645 0.21154,5.0065 -0.0705,5.25331 0.17628,6.7341 1.55131,9.02581 0.84617,1.37503 2.96159,2.53851 4.65393,2.53851 6.13473,0 17.38173,-9.13158 21.6831,-17.55802 0.42308,-0.84617 0.95194,-1.48079 1.19874,-1.37502 0.38782,0.10577 5.53535,9.23735 5.53535,9.80146 0,0.17629 -1.30451,0.95194 -2.89107,1.76285 -8.88478,4.47765 -11.52906,8.53221 -7.89759,12.16369 4.08982,4.08982 13.82077,1.33977 16.95865,-4.79496 1.30451,-2.57377 1.41028,-5.42959 0.35257,-8.84952 -0.14103,-0.38783 0.0705,-0.66989 0.63463,-0.81092 1.58657,-0.38782 6.27576,-3.73724 9.94249,-7.08667 2.00965,-1.83336 3.73725,-3.34942 3.80776,-3.34942 0.10577,0 0.28206,0.42309 0.42309,0.95194 0.10577,0.56412 1.30451,3.52571 2.64428,6.62833 2.67953,6.34627 3.0321,7.43924 3.5257,10.85918 0.4936,3.31416 -0.10577,4.54816 -4.08982,8.56746 -4.72444,4.72445 -8.17963,6.2405 -13.89128,6.06422 l -2.99685,-0.0705 -0.10577,1.72759 c -0.10577,2.32697 0.4936,3.41994 2.22119,3.98405 3.9488,1.30451 10.61238,-2.50325 18.05162,-10.2598 6.31101,-6.62833 11.95214,-15.16054 17.84007,-27.00691 2.92634,-5.88793 3.2084,-6.62833 3.24365,-8.53221 0,-1.7276 -0.14102,-2.18594 -0.88142,-2.92634 -0.4936,-0.4936 -1.44554,-1.12822 -2.15068,-1.41028 l -1.30452,-0.52886 -0.74039,2.7148 c -0.38783,1.4808 -1.234,4.61867 -1.83337,6.94564 -0.91668,3.52571 -1.69234,5.42959 -4.65393,11.28226 -1.9744,3.84302 -3.77251,7.08667 -3.94879,7.12193 -0.21155,0.0705 -0.88143,-1.83337 -1.55131,-4.19559 -1.7276,-6.13473 -3.9488,-12.76306 -5.25331,-15.4426 -1.37502,-2.92633 -2.71479,-4.23084 -4.61867,-4.47764 -1.51606,-0.21155 -4.26611,0.45834 -4.26611,1.02245 0,0.17629 0.38783,0.91668 0.88143,1.62183 1.51605,2.22119 1.234,3.17313 -1.65708,5.92318 -4.23085,4.01931 -10.33032,8.28541 -11.10598,7.79181 -0.14102,-0.10577 -1.55131,-2.75005 -3.10262,-5.92318 -1.79811,-3.66674 -2.67953,-5.7469 -2.39748,-5.85268 1.26926,-0.45834 3.27891,-2.36222 3.94879,-3.7725 0.95194,-1.93914 0.77566,-3.24365 -0.59937,-4.54816 -1.58656,-1.51606 -2.7853,-1.55131 -4.83021,-0.17629 z m -72.48852,4.0193 c 0.70514,0.84617 0.81091,1.26926 0.66988,3.17314 -0.2468,4.0193 -3.24365,7.36872 -8.2149,9.09632 -2.39748,0.88143 -6.45204,1.79811 -6.69884,1.55131 -0.35257,-0.31731 0.7404,-4.30136 1.79811,-6.59307 1.41029,-3.03211 2.99685,-5.11227 5.00651,-6.52256 3.17313,-2.18593 5.92318,-2.43273 7.43924,-0.70514 z m 35.68014,0.66989 c 3.27891,1.16348 6.31102,2.75005 6.31102,3.31416 0,0.91668 -1.44554,3.20839 -5.7469,9.09632 -5.67639,7.79181 -8.9553,11.03546 -11.24701,11.03546 -1.51605,0 -2.96159,-1.51605 -3.45519,-3.56096 -0.81091,-3.41994 0.28206,-10.08352 2.32697,-14.13808 1.09297,-2.15068 3.80776,-5.14753 5.2533,-5.78216 1.44554,-0.63463 4.68919,-0.59937 6.55781,0.0353 z m 42.06168,22.10617 c 0.45834,1.7276 0.21154,4.05457 -0.59937,5.60588 -1.41028,2.64428 -4.90073,3.94879 -6.87513,2.57376 -2.67954,-1.86862 -1.30451,-4.2661 4.33662,-7.68604 2.46799,-1.48079 2.85582,-1.55131 3.13788,-0.4936 z"
       id="path1375"
       style="fill:#078348;fill-opacity:1;stroke:none;stroke-width:0.0352571" />
    <path
       d="m 156.2597,151.42634 c -5.07702,1.234 -11.07072,5.92319 -13.78551,10.75341 -0.9872,1.76285 -0.9872,1.76285 3.66673,0.56411 1.86863,-0.4936 3.84302,-0.88142 4.37188,-0.88142 0.52885,0 2.85582,0.49359 5.14753,1.09296 6.38153,1.69234 9.16683,1.44554 11.03546,-0.95194 2.78531,-3.5257 0.84617,-9.23735 -3.59622,-10.54186 -2.11543,-0.63463 -4.33662,-0.63463 -6.83987,-0.0353 z"
       id="path1377"
       style="fill:#078348;fill-opacity:1;stroke:none;stroke-width:0.0352571" />
    <path
       d="m 260.40906,152.58983 c -0.95194,0.31731 -2.50325,1.26925 -3.45519,2.15068 l -1.7276,1.55131 v -1.79811 -1.79811 h -2.64428 -2.64428 v 14.98425 14.98425 h 2.60903 2.64428 l 0.10577,-10.15403 c 0.10577,-9.62518 0.14103,-10.18929 0.88142,-11.56432 2.00966,-3.7725 5.9937,-5.28856 9.55467,-3.66673 1.19874,0.52885 1.69234,1.02245 2.29171,2.36222 0.74039,1.62183 0.77565,2.2212 0.88142,12.33997 l 0.10577,10.68289 h 2.60903 2.60902 l 0.10577,-10.15403 c 0.10577,-9.62518 0.14103,-10.18929 0.88143,-11.56432 1.62182,-2.99685 4.65393,-4.65393 7.75655,-4.23085 2.00965,0.28206 3.13788,1.05772 4.08982,2.82057 0.7404,1.37502 0.77566,1.90388 0.88143,12.26946 l 0.10577,10.85917 h 2.64428 2.64428 l -0.10577,-11.38803 c -0.14103,-12.93934 -0.2468,-13.39768 -2.9616,-16.42979 -2.04491,-2.25645 -4.12507,-2.99685 -7.68604,-2.78531 -3.17313,0.21154 -5.53536,1.37503 -7.72129,3.77251 -1.65709,1.86862 -2.00966,2.11542 -2.00966,1.33977 0,-0.91669 -2.64428,-3.52571 -4.37187,-4.33662 -2.15068,-1.02246 -5.5001,-1.09297 -8.07387,-0.2468 z"
       id="path1379"
       style="fill:#e0130e;fill-opacity:1;stroke:none;stroke-width:0.0352571" />
    <path
       d="m 308.07661,152.51931 c -1.26926,0.28206 -2.96159,0.7404 -3.70199,0.9872 l -1.37503,0.4936 -0.10577,2.50325 c -0.10577,2.43274 0.0705,2.92634 0.84617,2.2212 1.41028,-1.30451 7.93284,-2.50325 11.14123,-2.00966 3.13788,0.45835 5.92319,3.27891 5.92319,5.95845 v 0.95194 h -4.93599 c -5.39433,0 -7.82707,0.38783 -10.25981,1.62182 -5.46484,2.75005 -6.59307,10.89444 -2.11542,15.33683 2.57377,2.57376 6.80461,3.45519 11.14123,2.2917 2.25645,-0.59937 3.06737,-1.02245 4.79496,-2.57376 l 1.37503,-1.234 v 1.79811 1.79811 h 2.67953 2.67954 l -0.14103,-10.85917 c -0.10577,-10.15404 -0.17628,-10.92969 -0.91668,-12.76306 -1.09297,-2.78531 -2.57377,-4.37188 -5.21805,-5.67639 -2.04491,-1.02245 -2.67953,-1.16348 -5.88793,-1.23399 -2.2917,-0.0705 -4.44238,0.0705 -5.92318,0.38782 z m 12.65728,17.38174 c -0.4936,5.42958 -3.84302,8.88477 -8.63798,8.88477 -4.30136,0 -7.01615,-3.34942 -5.78215,-7.12192 0.95194,-2.85582 3.34942,-3.73725 10.22454,-3.77251 l 4.37188,-0.0353 z"
       id="path1381"
       style="fill:#e0130e;fill-opacity:1;stroke:none;stroke-width:0.0352571" />
    <path
       d="m 346.89463,152.30777 c -1.65708,0.52886 -3.34942,1.51606 -4.65393,2.78531 l -1.33977,1.26925 v -1.83336 -1.83337 h -2.64428 -2.64428 v 14.98425 14.98425 h 2.64428 2.64428 v -9.66043 c 0,-10.71815 0.17629,-11.77586 2.2212,-13.89129 1.76285,-1.83336 2.92633,-2.32696 5.78216,-2.32696 2.96159,-0.0353 3.98404,0.52885 5.39433,2.99685 0.88142,1.55131 0.88142,1.58657 0.98719,12.19894 l 0.10578,10.68289 h 2.64428 2.64428 l -0.10578,-11.21174 c -0.14102,-10.75341 -0.17628,-11.24701 -0.95194,-13.25666 -1.12822,-2.78531 -3.2789,-4.93599 -5.71164,-5.64113 -1.93914,-0.59937 -5.5001,-0.70514 -7.01616,-0.2468 z"
       id="path1383"
       style="fill:#e0130e;fill-opacity:1;stroke:none;stroke-width:0.0352571" />
    <path
       d="m 215.45631,164.04837 0.10577,11.38803 1.02245,2.2212 c 1.90388,4.08982 5.28856,5.95844 10.11878,5.64113 2.89108,-0.21154 5.78216,-1.51605 7.33347,-3.31417 l 1.09297,-1.23399 v 1.97439 1.93914 h 2.64428 2.64428 V 167.67985 152.6956 h -2.60903 -2.64428 l -0.10577,10.11878 c -0.10577,9.62517 -0.14102,10.22454 -0.88142,11.56431 -0.38783,0.77566 -1.12823,1.76286 -1.58657,2.15068 -2.78531,2.57377 -7.50976,2.85582 -9.83672,0.63463 -1.83337,-1.76285 -2.08017,-3.41993 -2.08017,-14.49065 v -9.97775 h -2.67953 -2.64428 z"
       id="path1385"
       style="fill:#e0130e;fill-opacity:1;stroke:none;stroke-width:0.0352571" />
    <path
       d="m 110.81335,171.1703 c -2.15069,0.95194 -3.56097,3.87828 -3.10263,6.4873 0.77566,4.5129 4.83022,7.01615 9.83672,6.06421 4.30137,-0.81091 9.37838,-3.80776 12.86883,-7.65078 1.86863,-2.04491 3.41994,-4.7597 2.85582,-4.97124 -0.17628,-0.0705 -1.72759,0.28205 -3.41993,0.77565 -1.7276,0.52886 -3.52571,0.91668 -4.01931,0.91668 -0.4936,0 -2.85582,-0.49359 -5.28856,-1.05771 -4.72444,-1.12822 -8.00335,-1.30451 -9.73094,-0.56411 z"
       id="path1387"
       style="fill:#078348;fill-opacity:1;stroke:none;stroke-width:0.0352571" />
    <path
       d="m 137.85551,175.15435 c -0.84617,4.79496 -1.234,5.53536 -5.18279,9.66043 -3.0321,3.17314 -3.73724,4.12508 -4.16033,5.64113 -0.31731,1.02246 -0.56411,2.18594 -0.56411,2.57377 0,2.82056 2.29171,5.95844 4.68919,6.38153 6.06421,1.16348 10.5066,-4.23085 10.47134,-12.65729 -0.0353,-4.08982 -1.51605,-10.5066 -2.92633,-12.62203 -1.30451,-1.93914 -1.83337,-1.69234 -2.32697,1.02246 z"
       id="path1389"
       style="fill:#e0130e;fill-opacity:1;stroke:none;stroke-width:0.0352571" />
    <path
       d="m 412.47277,196.94321 c 0,8.39118 0.0353,8.63798 0.70514,8.63798 0.66988,0 0.70514,-0.2468 0.70514,-8.63798 0,-8.39118 -0.0353,-8.63798 -0.70514,-8.63798 -0.66988,0 -0.70514,0.2468 -0.70514,8.63798 z"
       id="path1391"
       style="fill:#808080;stroke:none;stroke-width:0.0352571" />
    <path
       d="m 426.92816,189.18666 c 0,0.70514 0.17629,0.88142 0.88143,0.88142 0.70514,0 0.88143,-0.17628 0.88143,-0.88142 0,-0.70514 -0.17629,-0.88143 -0.88143,-0.88143 -0.70514,0 -0.88143,0.17629 -0.88143,0.88143 z"
       id="path1393"
       style="fill:#808080;stroke:none;stroke-width:0.0352571" />
    <path
       d="m 418.46647,191.30208 c 0,1.33977 -0.10577,1.58657 -0.70514,1.58657 -0.45834,0 -0.70514,0.2468 -0.70514,0.70514 0,0.45834 0.2468,0.70514 0.70514,0.70514 0.66988,0 0.70514,0.2468 0.70514,4.12508 0,2.60902 0.17628,4.47765 0.45834,5.04176 0.52886,1.09297 2.50325,2.11542 4.05456,2.11542 0.88143,0 1.12823,-0.14103 1.12823,-0.70514 0,-0.56411 -0.2468,-0.70514 -1.19874,-0.70514 -0.66988,0 -1.55131,-0.31731 -2.00965,-0.66988 -0.77566,-0.63463 -0.84617,-0.95195 -0.9872,-4.93599 l -0.10577,-4.26611 h 2.15068 c 1.90388,0 2.15068,-0.0705 2.15068,-0.70514 0,-0.63463 -0.2468,-0.70514 -2.11542,-0.70514 h -2.11543 v -1.58657 c 0,-1.33977 -0.10577,-1.58657 -0.70514,-1.58657 -0.59937,0 -0.70514,0.2468 -0.70514,1.58657 z"
       id="path1395"
       style="fill:#808080;stroke:none;stroke-width:0.0352571" />
    <path
       d="m 350.87868,192.85339 c -2.92633,0.7404 -4.08982,2.50325 -4.08982,6.2405 0,4.47765 1.76286,6.4873 5.81742,6.4873 2.57376,0 3.80776,-0.45834 3.80776,-1.44554 0,-0.56411 -0.14103,-0.66988 -0.59937,-0.4936 -1.79811,0.7404 -3.24365,0.91669 -4.58342,0.56412 -2.22119,-0.59937 -2.71479,-1.44554 -2.85582,-4.58342 -0.10577,-3.20839 0.28206,-4.19559 2.18594,-5.11228 1.16348,-0.56411 1.65708,-0.63462 2.99685,-0.31731 0.88143,0.17629 1.90388,0.45834 2.25645,0.63463 0.45834,0.17628 0.59937,0.0705 0.59937,-0.4936 0,-1.16348 -3.24365,-2.04491 -5.53536,-1.4808 z"
       id="path1397"
       style="fill:#808080;stroke:none;stroke-width:0.0352571" />
    <path
       d="m 362.51351,192.92391 c -2.53851,0.7404 -4.08982,4.68919 -3.31416,8.25015 0.52885,2.39748 1.76285,3.91353 3.59622,4.40713 3.98405,1.09297 7.05141,-2.36222 6.55781,-7.33347 -0.42308,-4.08982 -3.34942,-6.38153 -6.83987,-5.32381 z m 3.98405,2.11542 c 1.79811,1.65708 1.79811,6.7341 0.0353,8.35592 -1.65708,1.51606 -3.80777,1.26926 -5.07702,-0.63462 -1.65708,-2.43274 -0.81091,-7.54501 1.41028,-8.4617 1.09297,-0.45834 2.7148,-0.14103 3.63148,0.7404 z"
       id="path1399"
       style="fill:#808080;stroke:none;stroke-width:0.0352571" />
    <path
       d="m 377.07468,192.88865 c -0.52886,0.17628 -1.26926,0.56411 -1.62183,0.88143 -0.56411,0.52885 -0.63462,0.4936 -0.81091,-0.17629 -0.14103,-0.4936 -0.42308,-0.7404 -0.84617,-0.63463 -0.59937,0.10577 -0.63463,0.59937 -0.63463,6.27576 0,5.92319 0.0353,6.16999 0.70515,6.16999 0.66988,0 0.70514,-0.28206 0.88142,-4.58342 0.10577,-2.53851 0.31732,-4.86548 0.4936,-5.18279 0.31732,-0.66988 2.29171,-1.69234 3.31417,-1.69234 0.38782,0 1.05771,0.31732 1.51605,0.66989 0.81091,0.63462 0.84617,0.95194 1.02245,5.7469 0.17629,4.7597 0.21155,5.04176 0.88143,5.04176 0.66988,0 0.70514,-0.21155 0.66988,-4.75971 -0.0352,-6.16998 -0.56411,-7.33347 -3.49044,-7.86232 -0.56412,-0.10577 -1.51606,-0.0705 -2.08017,0.10577 z"
       id="path1401"
       style="fill:#808080;stroke:none;stroke-width:0.0352571" />
    <path
       d="m 388.95631,192.92391 c -2.43274,0.70514 -3.41994,3.73725 -1.7276,5.42958 0.45834,0.45835 1.51606,1.02246 2.36223,1.234 2.67953,0.66989 3.49044,1.12823 3.70199,1.9744 0.63462,2.50325 -2.67954,3.59622 -6.27576,2.08016 -0.4936,-0.17628 -0.63463,-0.0705 -0.63463,0.4936 0,1.02246 1.234,1.44554 4.08982,1.44554 2.08017,0 2.39748,-0.10577 3.34942,-1.02245 0.7404,-0.7404 1.02246,-1.37503 1.02246,-2.29171 0,-1.79811 -1.16349,-2.89108 -4.01931,-3.84302 -2.67953,-0.84617 -3.24365,-1.41028 -2.89108,-2.82057 0.35257,-1.37502 2.57377,-1.97439 4.65394,-1.23399 1.62182,0.56411 1.90388,0.52885 1.90388,-0.42309 0,-0.42308 -0.45834,-0.7404 -1.55131,-1.02245 -1.83337,-0.45835 -2.43274,-0.45835 -3.98405,0 z"
       id="path1403"
       style="fill:#808080;stroke:none;stroke-width:0.0352571" />
    <path
       d="m 437.01168,192.88865 c -0.52885,0.17628 -1.30451,0.59937 -1.65708,0.91668 -0.63462,0.56412 -0.66988,0.56412 -0.66988,-0.14102 0,-0.52886 -0.21154,-0.77566 -0.70514,-0.77566 -0.66989,0 -0.70514,0.2468 -0.70514,6.34627 0,6.02896 0.0352,6.34627 0.66988,6.34627 0.63463,0 0.70514,-0.35257 0.81091,-4.7597 0.10577,-4.54816 0.14103,-4.79496 1.02246,-5.64113 1.33977,-1.33977 3.10262,-1.51605 4.37187,-0.45834 0.9872,0.88142 1.02246,0.91668 1.16349,5.88793 0.14102,4.37187 0.2468,5.0065 0.74039,4.90073 0.45835,-0.10577 0.56412,-0.77566 0.66989,-4.37188 0.10577,-4.7597 -0.28206,-6.55781 -1.69234,-7.58027 -1.09297,-0.81091 -2.67954,-1.09297 -4.01931,-0.66988 z"
       id="path1405"
       style="fill:#808080;stroke:none;stroke-width:0.0352571" />
    <path
       d="m 450.0568,192.88865 c -2.78531,0.84617 -4.23085,4.2661 -3.4552,8.03861 0.84617,4.08982 4.79497,5.85267 7.58027,3.34942 0.31732,-0.31731 0.70514,-0.4936 0.81092,-0.35257 0.38782,0.38783 -0.28206,3.13788 -0.91669,3.77251 -0.95194,0.95194 -3.38468,1.19874 -5.18279,0.56411 -1.51605,-0.52886 -1.51605,-0.52886 -1.51605,0.31731 0,0.95194 1.09297,1.30451 3.87828,1.30451 2.00965,0 3.38468,-0.59937 4.37187,-1.93913 0.66989,-0.91669 0.7404,-1.55132 0.84617,-8.03862 0.10577,-6.91038 0.10577,-7.01615 -0.59937,-7.01615 -0.4936,0 -0.7404,0.21154 -0.7404,0.70514 0,0.88143 -0.28205,0.88143 -1.19874,0.0353 -0.91668,-0.81091 -2.5385,-1.12823 -3.87827,-0.7404 z m 2.57376,1.44554 c 1.51606,0.52886 2.29171,2.11542 2.29171,4.72445 0,2.60902 -0.77565,4.19559 -2.32696,4.72444 -2.67954,0.95194 -4.61868,-0.95194 -4.65394,-4.54816 -0.0353,-2.53851 0.66989,-4.19559 2.04491,-4.79496 1.33977,-0.56411 1.26926,-0.56411 2.64428,-0.10577 z"
       id="path1407"
       style="fill:#808080;stroke:none;stroke-width:0.0352571" />
    <path
       d="m 398.36994,197.47207 c 0,5.0065 0.35257,6.52255 1.79811,7.54501 1.16349,0.81091 3.66674,0.7404 5.11228,-0.17629 l 1.19874,-0.74039 v 0.74039 c 0,0.4936 0.21154,0.7404 0.70514,0.7404 0.66988,0 0.70514,-0.2468 0.70514,-6.34627 0,-6.09947 -0.0353,-6.34627 -0.70514,-6.34627 -0.66988,0 -0.70514,0.2468 -0.70514,4.05456 0,5.60587 -0.70514,7.08667 -3.38468,7.26296 -2.82056,0.21154 -3.31416,-0.84617 -3.31416,-6.94564 0,-4.12508 -0.0353,-4.37188 -0.70514,-4.37188 -0.66989,0 -0.70515,0.2468 -0.70515,4.58342 z"
       id="path1409"
       style="fill:#808080;stroke:none;stroke-width:0.0352571" />
    <path
       d="m 427.10445,193.31173 c -0.10577,0.28206 -0.14103,3.10263 -0.10577,6.27576 0.10577,5.53536 0.14103,5.81742 0.81091,5.81742 0.66989,0 0.70514,-0.2468 0.70514,-6.16999 0,-5.60587 -0.0705,-6.16999 -0.63462,-6.27576 -0.31732,-0.0705 -0.66989,0.10577 -0.77566,0.35257 z"
       id="path1411"
       style="fill:#808080;stroke:none;stroke-width:0.0352571" />
    <g
       id="g1752"
       transform="matrix(-0.19739225,0.29213412,-0.29213412,-0.19739225,252.12295,155.96498)"
       style="fill:#fecb00;fill-opacity:1">
      <path
         d="m 213.10294,159.86836 c -11.9,3.8 -18.7,18.3 -18.7,39.7 0,13.6 4.5,28.4 10.4,33.9 l 2.4,2.2 1.5,-6.8 c 3.2,-14.2 5.2,-17.7 16.2,-29.3 11.5,-12.1 14.1,-16.9 13.2,-24.6 -1.2,-10.8 -14.1,-18.6 -25,-15.1 z"
         id="path1746"
         style="fill:#fecb00;fill-opacity:1;stroke:none;stroke-width:0.1" />
      <path
         d="m 209.50294,272.26836 c -2.4,13.6 -3.5,15.7 -14.7,27.4 -8.6,9 -10.6,11.7 -11.8,16 -0.9,2.9 -1.6,6.2 -1.6,7.3 0,8 6.5,16.9 13.3,18.1 17.2,3.3 29.8,-12 29.7,-35.9 -0.1,-11.6 -4.3,-29.8 -8.3,-35.8 -3.7,-5.5 -5.2,-4.8 -6.6,2.9 z"
         id="path1748"
         style="fill:#fecb00;fill-opacity:1;stroke:none;stroke-width:0.1" />
    </g>
  </g>
</svg>
